^C:\USERS\JOHN\DOCUMENTS\VISUAL STUDIO 2012\PROJECTS\CS137 PROJECT\CS137 PROJECT\DATE.CPP
/c /ZI /nologo /W3 /WX- /Od /Oy- /D _MBCS /Gm /EHsc /RTC1 /MDd /GS /fp:precise /Zc:wchar_t /Zc:forScope /Fo"DEBUG\\" /Fd"DEBUG\VC110.PDB" /Gd /TP /analyze- C:\USERS\JOHN\DOCUMENTS\VISUAL STUDIO 2012\PROJECTS\CS137 PROJECT\CS137 PROJECT\DATE.CPP
^C:\USERS\JOHN\DOCUMENTS\VISUAL STUDIO 2012\PROJECTS\CS137 PROJECT\CS137 PROJECT\TEST.CPP
/c /ZI /nologo /W3 /WX- /Od /Oy- /D _MBCS /Gm /EHsc /RTC1 /MDd /GS /fp:precise /Zc:wchar_t /Zc:forScope /Fo"DEBUG\\" /Fd"DEBUG\VC110.PDB" /Gd /TP /analyze- C:\USERS\JOHN\DOCUMENTS\VISUAL STUDIO 2012\PROJECTS\CS137 PROJECT\CS137 PROJECT\TEST.CPP
^C:\USERS\JOHN\DROPBOX\CS 137 PROJECT\DAVID'S WORK\TIME.CPP
/c /ZI /nologo /W3 /WX- /Od /Oy- /D _MBCS /Gm /EHsc /RTC1 /MDd /GS /fp:precise /Zc:wchar_t /Zc:forScope /Fo"DEBUG\\" /Fd"DEBUG\VC110.PDB" /Gd /TP /analyze- C:\USERS\JOHN\DROPBOX\CS 137 PROJECT\DAVID'S WORK\TIME.CPP
^C:\USERS\JOHN\DOCUMENTS\VISUAL STUDIO 2012\PROJECTS\CS137 PROJECT\CS137 PROJECT\COURSE.CPP
/c /ZI /nologo /W3 /WX- /Od /Oy- /D _MBCS /Gm /EHsc /RTC1 /MDd /GS /fp:precise /Zc:wchar_t /Zc:forScope /Fo"DEBUG\\" /Fd"DEBUG\VC110.PDB" /Gd /TP /analyze- C:\USERS\JOHN\DOCUMENTS\VISUAL STUDIO 2012\PROJECTS\CS137 PROJECT\CS137 PROJECT\COURSE.CPP
^C:\USERS\JOHN\DOCUMENTS\VISUAL STUDIO 2012\PROJECTS\CS137 PROJECT\CS137 PROJECT\COURSESCHEDULE.CPP
/c /ZI /nologo /W3 /WX- /Od /Oy- /D _MBCS /Gm /EHsc /RTC1 /MDd /GS /fp:precise /Zc:wchar_t /Zc:forScope /Fo"DEBUG\\" /Fd"DEBUG\VC110.PDB" /Gd /TP /analyze- C:\USERS\JOHN\DOCUMENTS\VISUAL STUDIO 2012\PROJECTS\CS137 PROJECT\CS137 PROJECT\COURSESCHEDULE.CPP
^C:\USERS\JOHN\DOCUMENTS\VISUAL STUDIO 2012\PROJECTS\CS137 PROJECT\CS137 PROJECT\SEMESTER.CPP
/c /ZI /nologo /W3 /WX- /Od /Oy- /D _MBCS /Gm /EHsc /RTC1 /MDd /GS /fp:precise /Zc:wchar_t /Zc:forScope /Fo"DEBUG\\" /Fd"DEBUG\VC110.PDB" /Gd /TP /analyze- C:\USERS\JOHN\DOCUMENTS\VISUAL STUDIO 2012\PROJECTS\CS137 PROJECT\CS137 PROJECT\SEMESTER.CPP
^C:\USERS\JOHN\DOCUMENTS\VISUAL STUDIO 2012\PROJECTS\CS137 PROJECT\CS137 PROJECT\CLIENT.CPP
/c /ZI /nologo /W3 /WX- /Od /Oy- /D _MBCS /Gm /EHsc /RTC1 /MDd /GS /fp:precise /Zc:wchar_t /Zc:forScope /Fo"DEBUG\\" /Fd"DEBUG\VC110.PDB" /Gd /TP /analyze- C:\USERS\JOHN\DOCUMENTS\VISUAL STUDIO 2012\PROJECTS\CS137 PROJECT\CS137 PROJECT\CLIENT.CPP
