^C:\USERS\JOHN\DOCUMENTS\VISUAL STUDIO 2012\PROJECTS\CS137 PROJECT\CS137 PROJECT\DEBUG\CLIENT.OBJ|C:\USERS\JOHN\DOCUMENTS\VISUAL STUDIO 2012\PROJECTS\CS137 PROJECT\CS137 PROJECT\DEBUG\COURSE.OBJ|C:\USERS\JOHN\DOCUMENTS\VISUAL STUDIO 2012\PROJECTS\CS137 PROJECT\CS137 PROJECT\DEBUG\COURSESCHEDULE.OBJ|C:\USERS\JOHN\DOCUMENTS\VISUAL STUDIO 2012\PROJECTS\CS137 PROJECT\CS137 PROJECT\DEBUG\DATE.OBJ|C:\USERS\JOHN\DOCUMENTS\VISUAL STUDIO 2012\PROJECTS\CS137 PROJECT\CS137 PROJECT\DEBUG\SEMESTER.OBJ|C:\USERS\JOHN\DOCUMENTS\VISUAL STUDIO 2012\PROJECTS\CS137 PROJECT\CS137 PROJECT\DEBUG\TEST.OBJ|C:\USERS\JOHN\DOCUMENTS\VISUAL STUDIO 2012\PROJECTS\CS137 PROJECT\CS137 PROJECT\DEBUG\TIME.OBJ
C:\USERS\JOHN\DOCUMENTS\VISUAL STUDIO 2012\PROJECTS\CS137 PROJECT\DEBUG\CS137 PROJECT.ILK
C:\USERS\JOHN\DOCUMENTS\VISUAL STUDIO 2012\PROJECTS\CS137 PROJECT\DEBUG\CS137 PROJECT.EXE
C:\USERS\JOHN\DOCUMENTS\VISUAL STUDIO 2012\PROJECTS\CS137 PROJECT\DEBUG\CS137 PROJECT.PDB
